{
    "name": "bossHuman_move",
    "groupList": [
        {
            "name": "hideSprint",
            "desc": "血池冲刺",
            "isLoop" : false,
            "actions" : [
                {
                    "desc": "向当前朝向匀速位移一段时间",
                    "targetPosTriggerType" : "groupStart",
                    "actionType" : "constantVelocity",
                    "velocity" : [10.0, 0, 0],
                    "fixedTime" : 1,
                    "correctVelocityHType" : "positive",
                    "moveTargetConfig" : {
                        "targetType" : "none",
                    }
                },
            ]
        },
        {
            "name": "nearmove",
            "desc": "水平冲刺",
            "isLoop" : false,
            "actions" : [
                {
                    "desc": "原地",
                    "targetPosTriggerType" : "actionStart",
                    "actionType" : "constantVelocity",
                    "changeFaceType" : "ignore",
                    "velocity" : [0, 0, 0],
                    "fixedTime" : 0.3,
                    "correctVelocityHType" : "positive",
                    "moveTargetConfig" : {
                        "targetType" : "none",
                    }
                },
                {
                    "desc": "向当前朝向匀速位移一段时间",
                    "targetPosTriggerType" : "actionStart",
                    "actionType" : "constantVelocity",
                    "changeFaceType" : "ignore",
                    "velocity" : [10.0, 0, 0],
                    "fixedTime" : 0.2,
                    "correctVelocityHType" : "positive",
                    "moveTargetConfig" : {
                        "targetType" : "none",
                    }
                },
            ]
        },
        {
            "name": "nearmove_1",
            "desc": "水平冲刺2段",
            "isLoop" : false,
            "actions" : [
                {
                    "desc": "原地",
                    "targetPosTriggerType" : "actionStart",
                    "actionType" : "constantVelocity",
                    "changeFaceType" : "ignore",
                    "velocity" : [0, 0, 0],
                    "fixedTime" : 0.3,
                    "correctVelocityHType" : "positive",
                    "moveTargetConfig" : {
                        "targetType" : "none",
                    }
                },
                {
                    "desc": "向当前朝向匀速位移一段时间",
                    "targetPosTriggerType" : "actionStart",
                    "actionType" : "constantVelocity",
                    "changeFaceType" : "ignore",
                    "velocity" : [10.0, 0, 0],
                    "fixedTime" : 0.2,
                    "correctVelocityHType" : "positive",
                    "moveTargetConfig" : {
                        "targetType" : "none",
                    }
                },
                {
                    "desc": "原地",
                    "targetPosTriggerType" : "actionStart",
                    "actionType" : "constantVelocity",
                    "changeFaceType" : "ignore",
                    "velocity" : [0, 0, 0],
                    "fixedTime" : 0.7,
                    "correctVelocityHType" : "positive",
                    "moveTargetConfig" : {
                        "targetType" : "none",
                    }
                },
                {
                    "desc": "向当前朝向匀速位移一段时间",
                    "targetPosTriggerType" : "actionStart",
                    "actionType" : "constantVelocity",
                    "changeFaceType" : "ignore",
                    "velocity" : [10.0, 0, 0],
                    "fixedTime" : 0.15,
                    "correctVelocityHType" : "positive",
                    "moveTargetConfig" : {
                        "targetType" : "none",
                    }
                },
            ]
        },
        {
            "name": "jumpSprintActor",
            "desc": "向前跳跃",
            "isLoop" : true,
            "actions" : [
                {
                    "actionType": "constantHWithGravity",
                    "velocity": [6, 10, 0],
                    "correctVelocityHType":"positive",                   
                    "useInput": false,
                    "accelerationY": -20,
                    "moveTime": -1,
                    "ignoreY": false,
                    "moveTargetConfig": {
                        "targetType": "none",
                    }
                },
            ]
        },
        {
            "name": "jumpSprintActor_2",
            "desc": "向前跳跃",
            "isLoop" : true,
            "actions" : [
                {
                    "desc": "原地0.3s",
                    "targetPosTriggerType" : "actionStart",
                    "actionType" : "constantVelocity",
                    "changeFaceType" : "ignore",
                    "velocity" : [0, 0, 0],
                    "fixedTime" : 0.3,
                    "correctVelocityHType" : "positive",
                    "moveTargetConfig" : {
                        "targetType" : "none",
                    }
                },
                {
                    "actionType": "constantHWithGravity",
                    "velocity": [12, 15, 0],
                    "correctVelocityHType":"positive",                    
                    "useInput": false,
                    "accelerationY": -20,
                    "moveTime": -1,
                    "ignoreY": false,
                    "moveTargetConfig": {
                        "targetType": "none",
                    }
                },
            ]
        },
        {
            "name": "jumpSprintActor_3",
            "desc": "下落",
            "isLoop": true,
            "actions" : [
                {
                    "desc": "原地0.3s",
                    "targetPosTriggerType" : "actionStart",
                    "actionType" : "constantVelocity",
                    "changeFaceType" : "ignore",
                    "velocity" : [0, 0, 0],
                    "fixedTime" : 0.3,
                    "correctVelocityHType" : "positive",
                    "moveTargetConfig" : {
                        "targetType" : "none",
                    }
                },
                {
                    "desc": "向当前朝向匀速位移一段时间",
                    "targetPosTriggerType" : "actionStart",
                    "actionType" : "constantVelocity",
                    "changeFaceType" : "ignore",
                    "velocity" : [0.0, -30, 0],
                    "fixedTime" : -1,
                    "correctVelocityHType" : "positive",
                    "moveTargetConfig" : {
                        "targetType" : "none",
                    }
                },
            ]
        },
        {
            "name": "jump",
            "desc": "原地上跳",
            "isLoop" : false,
            "actions" : [
                {
                    "desc": "向当前朝向匀速位移一段时间",
                    "targetPosTriggerType" : "actionStart",
                    "actionType" : "constantVelocity",
                    "velocity" : [0, 6, 0],
                    "fixedTime" : 0.5,
                    "correctVelocityHType" : "positive",
                    "moveTargetConfig" : {
                        "targetType" : "none",
                    }
                },
                {
                    "desc": "向当前朝向匀速位移一段时间",
                    "targetPosTriggerType" : "actionStart",
                    "actionType" : "constantVelocity",
                    "velocity" : [0, -6, 0],
                    "fixedTime" : 0.5,
                    "correctVelocityHType" : "positive",
                    "moveTargetConfig" : {
                        "targetType" : "none",
                    }
                },
            ]
        },
        {
            "name": "jump_left",
            "desc": "向左跳",
            "isLoop" : false,
            "actions" : [
                {
                    "desc": "向左上角移动",
                    "changeFaceType" : "speedX",
                    "targetPosTriggerType": "groupStart",
                    "actionType": "constantVelocity",
                    "fixedSpeed": 20,
                    "fixedTime": 0.5,
                    "fixedType": "time",
                    "moveTargetConfig": {
                        "targetType": "worldPos",
                        "worldPosition": [11, 4, 0]
                    }
                },
                {
                    "desc": "空中滞空0.1",
                    "targetPosTriggerType" : "actionStart",
                    "actionType" : "constantVelocity",
                    "changeFaceType" : "ignore",
                    "velocity" : [0, 0.01, 0],
                    "fixedTime" : 0.1,
                    "correctVelocityHType" : "positive",
                    "moveTargetConfig" : {
                        "targetType" : "none",
                    }
                },
                {
                    "desc": "落地",
                    "changeFaceType" : "speedX",
                    "targetPosTriggerType": "groupStart",
                    "actionType": "constantVelocity",
                    "fixedSpeed": 20,
                    "fixedTime": 0.6,
                    "fixedType": "time",
                    "moveTargetConfig": {
                        "targetType": "worldPos",
                        "worldPosition": [9, 0, 0]
                    }
                },
            ]
        },
        {
            "name": "jump_right",
            "desc": "向右跳",
            "isLoop" : false,
            "actions" : [
                {
                    "desc": "向右上角移动",
                    "changeFaceType" : "speedX",
                    "targetPosTriggerType": "groupStart",
                    "actionType": "constantVelocity",
                    "fixedSpeed": 20,
                    "fixedTime": 0.5,
                    "fixedType": "time",
                    "moveTargetConfig": {
                        "targetType": "worldPos",
                        "worldPosition": [29, 4, 0]
                    }
                },
                {
                    "desc": "空中滞空0.1",
                    "targetPosTriggerType" : "actionStart",
                    "actionType" : "constantVelocity",
                    "changeFaceType" : "ignore",
                    "velocity" : [0, 0.01, 0],
                    "fixedTime" : 0.1,
                    "correctVelocityHType" : "positive",
                    "moveTargetConfig" : {
                        "targetType" : "none",
                    }
                },
                {
                    "desc": "落地",
                    "changeFaceType" : "speedX",
                    "targetPosTriggerType": "groupStart",
                    "actionType": "constantVelocity",
                    "fixedSpeed": 20,
                    "fixedTime": 0.6,
                    "fixedType": "time",
                    "moveTargetConfig": {
                        "targetType": "worldPos",
                        "worldPosition": [30, 0, 0]
                    }
                },
            ]
        },
        {
            "name": "SprintJump_1",
            "desc": "冲刺跳跃",
            "isLoop" : false,
            "actions" : [
                {
                    "desc": "原地1s",
                    "targetPosTriggerType" : "actionStart",
                    "actionType" : "constantVelocity",
                    "changeFaceType" : "ignore",
                    "velocity" : [0, 0, 0],
                    "fixedTime" : 1,
                    "correctVelocityHType" : "positive",
                    "moveTargetConfig" : {
                        "targetType" : "none",
                    }
                },
                {
                    "desc": "瞬移到面前6米",
                    "targetPosTriggerType": "groupStart",    
                    "actionType": "teleport",
                    "changeFaceType" : "ignore",
                    "targetPosition": [0.0, 0, 0],
                    "moveTargetConfig": {
                        "targetType": "relativePos",
                        "correctVelocityHType" : "positive",
                        "relativePosition": [4, 0, 0]
                    }
                },
            ]
        },
        {
            "name": "SprintJump_2",
            "desc": "冲刺跳跃",
            "isLoop" : false,
            "actions" : [
                {
                    "desc": "原地1.8s",
                    "targetPosTriggerType" : "actionStart",
                    "actionType" : "constantVelocity",
                    "changeFaceType" : "ignore",
                    "velocity" : [0, 0, 0],
                    "fixedTime" : 1.8,
                    "correctVelocityHType" : "positive",
                    "moveTargetConfig" : {
                        "targetType" : "none",
                    }
                },
                {
                    "desc": "原地0.3s",
                    "targetPosTriggerType" : "actionStart",
                    "actionType" : "constantVelocity",
                    "changeFaceType" : "ignore",
                    "velocity" : [0, 0, 0],
                    "fixedTime" : 0.3,
                    "correctVelocityHType" : "positive",
                    "moveTargetConfig" : {
                        "targetType" : "none",
                    }
                },                
            ]
        },        
        {
            "name": "SprintJump_3",
            "desc": "冲刺跳跃",
            "isLoop" : false,
            "actions" : [
                {
                    "desc": "瞬移到目标最近可寻路点",
                    "targetPosTriggerType": "groupStart",    
                    "actionType": "teleport",
                    "changeFaceType" : "ignore",
                    "targetPosition": [0.0, 0, 0],
                    "moveTargetConfig": {
                        "targetType": "targetActorNavmesh",
                    }
                },
                {
                    "desc": "原地3.6s",
                    "targetPosTriggerType" : "actionStart",
                    "actionType" : "constantVelocity",
                    "changeFaceType" : "ignore",
                    "velocity" : [0, 0, 0],
                    "fixedTime" : 3.6,
                    "correctVelocityHType" : "positive",
                    "moveTargetConfig" : {
                        "targetType" : "none",
                    }
                },             
            ]
        },
        {
            "name": "SprintJump_3_1",
            "desc": "冲刺跳跃",
            "isLoop" : false,
            "actions" : [
                {
                    "desc": "瞬移到目标最近可寻路点",
                    "targetPosTriggerType": "groupStart",    
                    "actionType": "teleport",
                    "changeFaceType" : "ignore",
                    "targetPosition": [0.0, 0, 0],
                    "moveTargetConfig": {
                        "targetType": "targetActorNavmesh",
                    }
                },
                {
                    "desc": "原地0.7s",
                    "targetPosTriggerType" : "actionStart",
                    "actionType" : "constantVelocity",
                    "changeFaceType" : "ignore",
                    "velocity" : [0, 0, 0],
                    "fixedTime" : 1.4,
                    "correctVelocityHType" : "positive",
                    "moveTargetConfig" : {
                        "targetType" : "none",
                    }
                },             
            ]
        },
    ]
}