{
    "name": "bulletToPlayer_move",
    "groupList": [
        {
            "name": "run",
            "desc": "朝玩家飞行",
            "isLoop": true,
            "isDefault": true,
            "actions": [
                {
                    "desc": "朝玩家飞行",
                    "targetPosTriggerType" : "actionStart",
                    "actionType" : "constantVelocity",
                    "changeFaceType" : "ignore",
                    "fixedTime" : -1,
                    "fixedType" : "timeAndSpeed",
                    "fixedSpeed" : 8,
                    "correctVelocityHType" : "positive",
                    "moveTargetConfig" : {
                        "targetType" : "targetActor",
                        "bodyPart" : "pelvic",
                    }
                },
            ]
        },
    ]
}