{
    "name": "destroyPlatform_animation",
    "groupList":[
        {
            "name": "stand",
            "desc": "站立",
            "default": true,
            "actionList":[
                {
                    "key": "stand",
                    "animationName": "idle",
                    "startFrame": 0,
                    "endFrame": 72,
                    "loopType": 2,
                }
            ]            
        },     
        {
            "name": "dead",
            "desc": "死亡",
            "actionList":[
                {
                    "key": "dead",
                    "animationName": "die",
                    "startFrame": 10,
                    "endFrame": 100,
                    "loopType": 1,
                }
            ]
        },             
    ]
}