{
    "name": "monster_elite_animation",
    "groupList":[
        {
            "name": "stand",
            "desc": "站立",
            "default": true,
            "actionList":[
                {
                    "key": "stand",
                    "animationName": "idle",
                    "startFrame": 0,
                    "endFrame": 72,
                    "loopType": 2,
                }
            ]            
        },
        {
            "name": "battleidle",
            "desc": "站立",
            "default": true,
            "actionList":[
                {
                    "key": "battleidle",
                    "animationName": "battleidle",
                    "startFrame": 0,
                    "endFrame": 72,
                    "loopType": 2,
                }
            ]            
        },
        {
            "name": "dead",
            "desc": "死亡",
            "actionList":[
                {
                    "key": "dead",
                    "animationName": "die",
                    "startFrame": 0,
                    "endFrame": 72,
                    "loopType": 1,
                }
            ]
        },        
        {
            "name": "skill01",
            "desc": "攻击",
            "actionList":[
                {
                    "key": "skill01",
                    "animationName": "skill01",
                    "startFrame": 0,
                    "endFrame": 72,
                    "loopType": 1,
                }
            ]
        },
        {
            "name": "skill02",
            "desc": "落石",
            "actionList":[
                {
                    "key": "skill02",
                    "animationName": "skill02",
                    "startFrame": 0,
                    "endFrame": 85,
                    "loopType": 1,
                }
            ]
        },
    ]
}