{
    "name": "monster_jump_move",
    "groupList": [
        {
            "name": "jumpattack",
            "desc": "跳跃攻击",
            "isLoop" : false,
            "actions" : [
                {
                    "desc": "向当前朝向匀速位移一段时间",
                    "targetPosTriggerType" : "groupStart",
                    "actionType" : "constantVelocity",
                    "velocity" : [0.01, 0, 0],
                    "fixedTime" : 0.5,
                    "correctVelocityHType" : "positive",
                    "moveTargetConfig" : {
                        "targetType" : "none",
                    }
                },
                {
                    "desc": "向当前朝向匀速位移一段时间",
                    "targetPosTriggerType" : "groupStart",
                    "actionType" : "constantVelocity",
                    "velocity" : [5.0, 0, 0],
                    "fixedTime" : 0.7,
                    "correctVelocityHType" : "positive",
                    "moveTargetConfig" : {
                        "targetType" : "none",
                    }
                },
            ]
        },
        {
            "name": "jumpToTarget",
            "desc": "朝目标跳跃",
            "isLoop" : false,
            "actions" : [
                {
                    "actionType": "constantHWithGravity",
                    "velocity": [0, 0, 0],
                    "velocityKey" : "jumpTargetVelocity",
                    "useInput": false,
                    "accelerationY": -20,
                    "moveTime": -1,
                    "ignoreY": false,
                    "moveTargetConfig": {
                        "targetType": "none",
                    }
                },
            ]
        },
    ]
}